@startuml exercises

package "簡易クイズアプリ" {
    entity "回答者マスタ users" as users<<M,MASTER_MARK_COLOR>>{
      + ID [PK]
      ==
      名前 name
      作成日時 created_at
      削除日時 deleted_at
    }

    entity "クイズマスタ quizzes" as quizzes<<M,MASTER_MARK_COLOR>>{
      + ID [PK]
      ==
      カテゴリーID category_id
      問題番号 number
      問題 question
      作成日時 created_at
      更新日時 updated_at
    }

    entity "選択肢マスタ choices" as choices<<M,MASTER_MARK_COLOR>>{
      + ID [PK]
      ==
      正解番号 correct_answer
      選択肢 choice
      クイズID quiz_id
      作成日時 created_at
      更新日時 updated_at
    }

    entity "問題カテゴリマスタ categories" as categories<<M,MASTER_MARK_COLOR>>{
      + ID [PK]
      ==
      問題名 question_name
    }

    entity "得点 scores" as scores{
      + ID [PK]
      ==
      ユーザーID user_id
      クイズID quiz_id 
      回答番号 answer
      正誤判定 is_correct
      作成日時 created_at
      削除日時 deleted_at
    }
}
quizzes ||-|{ choices
users }|--o{ scores
quizzes ||--|{ scores
quizzes }|--|| categories

@enduml
